<svg width="101" height="122" viewBox="0 0 101 122" fill="none" xmlns="http://www.w3.org/2000/svg">
<path d="M83.1793 122H17.8207C13.0983 121.987 8.57296 120.114 5.23371 116.79C1.89446 113.466 0.0128153 108.962 0 104.261V17.7393C0.0128153 13.0385 1.89446 8.53382 5.23371 5.20981C8.57296 1.88581 13.0983 0.0127567 17.8207 0L83.1793 0C87.9017 0.0127567 92.427 1.88581 95.7663 5.20981C99.1055 8.53382 100.987 13.0385 101 17.7393V104.261C100.987 108.962 99.1055 113.466 95.7663 116.79C92.427 120.114 87.9017 121.987 83.1793 122ZM17.8207 2.4168C13.7383 2.4168 9.82304 4.03113 6.93633 6.90466C4.04962 9.77818 2.42788 13.6755 2.42788 17.7393V104.261C2.42788 106.273 2.82603 108.265 3.59959 110.124C4.37315 111.983 5.50698 113.673 6.93633 115.095C8.36568 116.518 10.0626 117.647 11.9301 118.417C13.7976 119.187 15.7993 119.583 17.8207 119.583H83.1793C87.2617 119.583 91.177 117.969 94.0637 115.095C96.9504 112.222 98.5721 108.324 98.5721 104.261V17.7393C98.5721 13.6755 96.9504 9.77818 94.0637 6.90466C91.177 4.03113 87.2617 2.4168 83.1793 2.4168H17.8207Z" fill="#022034"/>
<path d="M50.7428 57.0845C46.5172 57.0845 42.3864 55.8372 38.8729 53.5002C35.3593 51.1633 32.6209 47.8417 31.0038 43.9555C29.3867 40.0693 28.9636 35.7931 29.788 31.6675C30.6124 27.542 32.6472 23.7524 35.6352 20.778C38.6232 17.8037 42.4302 15.7781 46.5747 14.9575C50.7191 14.1369 55.015 14.558 58.919 16.1678C62.823 17.7775 66.1598 20.5034 68.5075 24.0009C70.8552 27.4984 72.1082 31.6103 72.1082 35.8167C72.1082 38.6096 71.5556 41.3752 70.4819 43.9555C69.4082 46.5358 67.8344 48.8804 65.8504 50.8553C63.8665 52.8302 61.5112 54.3968 58.919 55.4656C56.3268 56.5344 53.5486 57.0845 50.7428 57.0845ZM50.7428 16.9656C46.9974 16.9656 43.336 18.0712 40.2217 20.1426C37.1075 22.214 34.6802 25.1581 33.2469 28.6027C31.8135 32.0473 31.4385 35.8376 32.1692 39.4943C32.8999 43.1511 34.7035 46.51 37.352 49.1464C40.0005 51.7827 43.3748 53.5781 47.0483 54.3055C50.7218 55.0328 54.5295 54.6595 57.9899 53.2327C61.4503 51.806 64.4079 49.3898 66.4888 46.2897C68.5697 43.1897 69.6803 39.545 69.6803 35.8167C69.6675 30.821 67.6682 26.0336 64.1195 22.5011C60.5708 18.9686 55.7614 16.9784 50.7428 16.9656Z" fill="#022034"/>
<path d="M50.7428 44.4685C49.1966 44.4685 47.6851 44.0121 46.3995 43.157C45.1139 42.3019 44.1119 41.0865 43.5201 39.6645C42.9284 38.2425 42.7736 36.6778 43.0753 35.1682C43.3769 33.6586 44.1215 32.272 45.2148 31.1836C46.3082 30.0953 47.7012 29.3541 49.2177 29.0538C50.7342 28.7536 52.3061 28.9077 53.7346 29.4967C55.1631 30.0857 56.3841 31.0831 57.2431 32.3629C58.1021 33.6427 58.5606 35.1472 58.5606 36.6864C58.5606 38.7503 57.737 40.7297 56.2709 42.1892C54.8047 43.6486 52.8162 44.4685 50.7428 44.4685ZM50.7428 31.3211C49.6768 31.3211 48.6347 31.6358 47.7484 32.2253C46.862 32.8149 46.1712 33.6528 45.7632 34.6332C45.3553 35.6136 45.2485 36.6923 45.4565 37.7331C45.6645 38.7739 46.1778 39.7299 46.9316 40.4802C47.6854 41.2306 48.6458 41.7416 49.6913 41.9486C50.7369 42.1556 51.8206 42.0494 52.8055 41.6433C53.7903 41.2372 54.6321 40.5495 55.2244 39.6672C55.8166 38.7849 56.1327 37.7475 56.1327 36.6864C56.1327 35.2634 55.5649 33.8987 54.5541 32.8926C53.5433 31.8864 52.1723 31.3211 50.7428 31.3211Z" fill="#022034"/>
<path d="M39.6231 50.7042L37.6808 49.2541C40.2967 45.795 44.1849 43.511 48.4915 42.9037C52.798 42.2965 57.1705 43.4157 60.6486 46.0156C61.8852 46.9321 62.9812 48.0231 63.9019 49.2541L61.9596 50.7042C61.1754 49.6577 60.2431 48.7297 59.1918 47.949C56.2289 45.7338 52.5039 44.7797 48.8348 45.2962C45.1657 45.8128 41.8526 47.7579 39.6231 50.7042Z" fill="#022034"/>
<path d="M17.1409 75.6933C15.3928 75.6933 13.1592 73.0348 12.2851 71.4398C12.1895 71.3128 12.1199 71.1683 12.0803 71.0146C12.0408 70.8609 12.032 70.7009 12.0546 70.5438C12.0771 70.3867 12.1305 70.2356 12.2117 70.099C12.293 69.9625 12.4004 69.8432 12.5279 69.748C12.6555 69.6528 12.8006 69.5835 12.955 69.5441C13.1095 69.5047 13.2702 69.496 13.428 69.5185C13.5858 69.5409 13.7376 69.5941 13.8748 69.6749C14.012 69.7558 14.1318 69.8627 14.2275 69.9897C15.0572 71.2931 16.1482 72.4121 17.4323 73.2765C18.7433 73.2765 22.288 69.3613 24.7645 65.6878C24.8537 65.5545 24.9685 65.44 25.1022 65.3508C25.236 65.2617 25.386 65.1996 25.5438 65.1682C25.7017 65.1368 25.8641 65.1366 26.022 65.1677C26.1799 65.1988 26.3301 65.2606 26.464 65.3494C26.5979 65.4383 26.7129 65.5525 26.8025 65.6856C26.892 65.8188 26.9544 65.9681 26.9859 66.1252C27.0175 66.2823 27.0177 66.4441 26.9864 66.6012C26.9552 66.7584 26.8932 66.9079 26.8039 67.0412C25.1529 69.0713 20.4428 75.6933 17.1409 75.6933Z" fill="#022034"/>
<path d="M86.5784 71.6336H36.7097C36.3877 71.6336 36.0789 71.5063 35.8513 71.2797C35.6236 71.053 35.4957 70.7457 35.4957 70.4252C35.4957 70.1047 35.6236 69.7974 35.8513 69.5707C36.0789 69.3441 36.3877 69.2168 36.7097 69.2168H86.5784C86.9004 69.2168 87.2092 69.3441 87.4368 69.5707C87.6645 69.7974 87.7924 70.1047 87.7924 70.4252C87.7924 70.7457 87.6645 71.053 87.4368 71.2797C87.2092 71.5063 86.9004 71.6336 86.5784 71.6336Z" fill="#022034"/>
<path d="M17.0923 96.2851C15.3443 96.2851 13.1592 93.6266 12.2366 92.0799C12.1409 91.9529 12.0713 91.8085 12.0318 91.6547C11.9922 91.501 11.9834 91.341 12.006 91.184C12.0285 91.0269 12.0819 90.8757 12.1632 90.7392C12.2444 90.6026 12.3518 90.4833 12.4794 90.3881C12.6069 90.2929 12.752 90.2236 12.9064 90.1843C13.0609 90.1449 13.2216 90.1362 13.3794 90.1586C13.5372 90.181 13.689 90.2342 13.8262 90.315C13.9634 90.3959 14.0832 90.5029 14.1789 90.6298C15.0049 91.9229 16.0972 93.0267 17.3837 93.8683C18.6947 93.8683 22.2394 89.9531 24.7159 86.2796C24.8052 86.1463 24.9199 86.0318 25.0537 85.9426C25.1874 85.8535 25.3374 85.7914 25.4953 85.76C25.6531 85.7286 25.8156 85.7284 25.9734 85.7595C26.1313 85.7906 26.2815 85.8524 26.4154 85.9412C26.5493 86.0301 26.6643 86.1443 26.7539 86.2775C26.8434 86.4106 26.9058 86.5599 26.9373 86.717C26.9689 86.8741 26.9691 87.0359 26.9378 87.193C26.9066 87.3502 26.8446 87.4997 26.7553 87.633C25.3471 89.6631 20.637 96.2851 17.3351 96.2851H17.0923Z" fill="#022034"/>
<path d="M86.5784 92.2254H36.7097C36.3877 92.2254 36.0789 92.0981 35.8513 91.8715C35.6236 91.6448 35.4957 91.3375 35.4957 91.017C35.4957 90.6965 35.6236 90.3891 35.8513 90.1625C36.0789 89.9359 36.3877 89.8086 36.7097 89.8086H86.5784C86.9004 89.8086 87.2092 89.9359 87.4368 90.1625C87.6645 90.3891 87.7924 90.6965 87.7924 91.017C87.7924 91.3375 87.6645 91.6448 87.4368 91.8715C87.2092 92.0981 86.9004 92.2254 86.5784 92.2254Z" fill="#022034"/>
</svg>
